conv(&cfhe, &sfhe, 32, 32, 3, 3, 3, 64, 1, 0);
  conv(&cfhe, &sfhe,16,16,3,3,32,32,1, 0);
  conv(&cfhe, &sfhe,16,16,1,1,32,16,1, 0);
  conv(&cfhe, &sfhe,16,16,1,1,16,96,1, 0);
  conv(&cfhe, &sfhe,16,16,3,3,96,96,1, 0);
  conv(&cfhe, &sfhe,8,8,1,1,96,24,1, 0);
  conv(&cfhe, &sfhe,8,8,1,1,24,144,1, 0);
  conv(&cfhe, &sfhe,8,8,3,3,144,144,1, 0);
  conv(&cfhe, &sfhe,8,8,1,1,144,24,1, 0);
  conv(&cfhe, &sfhe,8,8,1,1,24,144,1, 0);
  conv(&cfhe, &sfhe,8,8,3,3,144,144,1, 0);
  conv(&cfhe, &sfhe,4,4,1,1,144,32,1, 0);
  conv(&cfhe, &sfhe,4,4,1,1,32,192,1, 0);
  conv(&cfhe, &sfhe,4,4,3,3,192,192,1, 0);
  conv(&cfhe, &sfhe,4,4,1,1,192,32,1, 0);
  conv(&cfhe, &sfhe,4,4,1,1,32,192,1, 0);
  conv(&cfhe, &sfhe,4,4,3,3,192,192,1, 0);
  conv(&cfhe, &sfhe,4,4,1,1,192,32,1, 0);
  conv(&cfhe, &sfhe,4,4,1,1,32,192,1, 0);
  conv(&cfhe, &sfhe,4,4,3,3,192,192,1, 0);
  conv(&cfhe, &sfhe,2,2,1,1,192,64,1, 0);
  conv(&cfhe, &sfhe,2,2,1,1,64,384,1, 0);
  conv(&cfhe, &sfhe,2,2,3,3,384,384,1, 0);
  conv(&cfhe, &sfhe,2,2,1,1,384,64,1, 0);
  conv(&cfhe, &sfhe,2,2,1,1,64,384,1, 0);
  conv(&cfhe, &sfhe,2,2,3,3,384,384,1, 0);
  conv(&cfhe, &sfhe,2,2,1,1,384,64,1, 0);
  conv(&cfhe, &sfhe,2,2,1,1,64,384,1, 0);
  conv(&cfhe, &sfhe,2,2,3,3,384,384,1, 0);
  conv(&cfhe, &sfhe,2,2,1,1,384,64,1, 0);
  conv(&cfhe, &sfhe,2,2,1,1,64,384,1, 0);
  conv(&cfhe, &sfhe,2,2,3,3,384,384,1, 0);
  conv(&cfhe, &sfhe,2,2,1,1,384,96,1, 0);
  conv(&cfhe, &sfhe,2,2,1,1,96,576,1, 0);
  conv(&cfhe, &sfhe,2,2,3,3,576,576,1, 0);
  conv(&cfhe, &sfhe,2,2,1,1,576,96,1, 0);
  conv(&cfhe, &sfhe,2,2,1,1,96,576,1, 0);
  conv(&cfhe, &sfhe,2,2,3,3,576,576,1, 0);
  conv(&cfhe, &sfhe,2,2,1,1,576,96,1, 0);
  conv(&cfhe, &sfhe,2,2,1,1,96,576,1, 0);
  conv(&cfhe, &sfhe,2,2,3,3,576,576,1, 0);
  conv(&cfhe, &sfhe,1,1,1,1,576,160,1, 0);
  conv(&cfhe, &sfhe,1,1,1,1,160,960,1, 0);
  conv(&cfhe, &sfhe,1,1,3,3,960,960,1, 0);
  conv(&cfhe, &sfhe,1,1,1,1,960,160,1, 0);
  conv(&cfhe, &sfhe,1,1,1,1,160,960,1, 0);
  conv(&cfhe, &sfhe,1,1,3,3,960,960,1, 0);
  conv(&cfhe, &sfhe,1,1,1,1,960,160,1, 0);
  conv(&cfhe, &sfhe,1,1,1,1,160,960,1, 0);
  conv(&cfhe, &sfhe,1,1,3,3,960,960,1, 0);
  conv(&cfhe, &sfhe,1,1,1,1,960,320,1, 0);
  conv(&cfhe, &sfhe,1,1,1,1,320,1280,1, 0);
  fc(&cfhe, &sfhe,1280,1000);
